Class 3 Example: Exploring the Day 1 Survey
…
library(magrittr); library(tidyverse)
## always need tidyverse, can include other packages too

Load the Data

We will read in the .csv file of the data, and then pipe that result into the tbl_df function, which turns the data frame into a nicely organized tibble.

Since weve carefully stored the data file in the same directory as our R Project, we can read it in directly.

day1 <- read.csv("surveyday1_2018.csv") %>% tbl_df

day1

# A tibble: 254 x 20
   student sex   english statsofar ageguess smoke h.left h.right
     <int> <fct> <fct>       <int>    <int> <int>  <int>   <int>
 1  201801 m     n               5       45     1      9      11
 2  201802 f     y               6       50     1      0      10
 3  201803 f     y               7       45     1      0      10
 4  201804 f     y               6       50     1      0      10
 5  201805 f     n               5       46     1      2      18
 6  201806 f     y               5       48     1      0      20
 7  201807 f     y               6       50     1     14       3
 8  201808 f     y               4       45     1      5      17
 9  201809 m     y               5       50     1      4       6
10  201810 f     y               4       60     1      1      10
# ... with 244 more rows, and 12 more variables: handedness <dbl>,
#   statfuture <int>, haircut <dbl>, lecture <int>, alone <int>,
#   height.in <dbl>, hand.span <dbl>, favcolor <fct>,
#   lastsleep <dbl>, pulse <int>, year <int>, lovetrueage <dbl>
…
So we have missing values in the favcolor, haircut, ageguess, pulse and lastsleep data to watch out for.

What are the favorite colors of students in 431?

We can get a count of the complete set of responses

day1 %>%
    count(favcolor)

# A tibble: 29 x 2
   favcolor         n
   <fct>        <int>
 1 aqua             2
 2 aquamarine       1
 3 black            5
 4 blue            98
 5 brown            3
 6 burnt orange     1
 7 chartreuse       1
 8 dark blue        2
 9 depends          1
10 gray             4
# ... with 19 more rows
…
